{
    "tags": {
        "allowUnknownTags": true,
        "dictionaries": ["jsdoc","closure"]
    },
    "source": {
        "include": ["src"],
        "includePattern": ".+\\.js(doc|x)?$",
        "excludePattern": "(^|\\/|\\\\)_"
    },
    "plugins": [
        "plugins/markdown"
    ],
    "templates": {
        "cleverLinks": true,
        "monospaceLinks": true
    },
    "opts": {
        "destination": "docs",
        "encoding": "utf8",
        "private": true,
        "recurse": true,
        "readme": "README.md",
        "template": "node_modules/toast-jsdoc"
    }
}